[
    {
        "Id": "64a77a71c3a4b5b0c4f6d007",
        "Name": "Galaxy S22",
        "Summary": "Latest Samsung smartphone with high-end features.",
        "Description": "A smartphone with a 6.8-inch AMOLED display, 108MP camera, and 5000mAh battery.",
        "ImageFile": "galaxy_s22.png",
        "Price": 999.99,
        "Brands": {
            "Id": "64a77a71c3a4b5b0c4f6d004",
            "Name": "Samsung"
        },
        "Types": {
            "Id": "64a77a71c3a4b5b0c4f6d001",
            "Name": "Electronics"
        }
    },
    {
        "Id": "64a77a71c3a4b5b0c4f6d008",
        "Name": "Air Max 90",
        "Summary": "Classic Nike sneakers for everyday wear.",
        "Description": "Durable and comfortable sneakers with a timeless design.",
        "ImageFile": "air_max_90.png",
        "Price": 129.99,
        "Brands": {
            "Id": "64a77a71c3a4b5b0c4f6d005",
            "Name": "Nike"
        },
        "Types": {
            "Id": "64a77a71c3a4b5b0c4f6d002",
            "Name": "Clothing"
        }
    },
    {
        "Id": "64a77a71c3a4b5b0c4f6d009",
        "Name": "Malm Bed Frame",
        "Summary": "Stylish and sturdy bed frame by IKEA.",
        "Description": "A queen-sized bed frame made of solid wood with a modern design.",
        "ImageFile": "malm_bed_frame.png",
        "Price": 199.99,
        "Brands": {
            "Id": "64a77a71c3a4b5b0c4f6d006",
            "Name": "IKEA"
        },
        "Types": {
            "Id": "64a77a71c3a4b5b0c4f6d003",
            "Name": "Furniture"
        }
    }
]
